<svg width="10" height="6" viewBox="0 0 10 6" fill="none" xmlns="http://www.w3.org/2000/svg">
<path d="M9.51767 0.260254H0.482358C0.0547941 0.260254 -0.163022 0.776558 0.143534 1.08311L4.66119 5.60077C4.84674 5.78632 5.15329 5.78632 5.33892 5.60077L9.85658 1.08311C10.1631 0.776558 9.94524 0.260254 9.51767 0.260254Z" fill="white"/>
</svg>
