<svg width="10" height="10" viewBox="0 0 10 10" fill="none" xmlns="http://www.w3.org/2000/svg">
<circle cx="5" cy="5" r="4.5" stroke="#EB5757" stroke-opacity="0.55"/>
<circle cx="5.00008" cy="4.99984" r="3.33333" fill="#EB5757"/>
</svg>
