<svg width="30" height="30" viewBox="0 0 30 30" fill="none" xmlns="http://www.w3.org/2000/svg">
<path d="M21.7 9H16.6066C16.3393 9 16.2055 9.32314 16.3945 9.51213L21.4878 14.6055C21.6768 14.7945 22 14.6607 22 14.3934V9.3C22 9.13431 21.8657 9 21.7 9Z" fill="white"/>
<path d="M15.1173 15.8822L19.7056 11.2939" stroke="white" stroke-linecap="round"/>
<path d="M20.875 16.7188C20.875 16.4426 20.6511 16.2188 20.375 16.2188C20.0989 16.2188 19.875 16.4426 19.875 16.7188H20.875ZM14.2812 11.125C14.5574 11.125 14.7812 10.9011 14.7812 10.625C14.7812 10.3489 14.5574 10.125 14.2812 10.125V11.125ZM18.375 20.6875H11.8125V21.6875H18.375V20.6875ZM10.3125 19.1875V12.625H9.3125V19.1875H10.3125ZM19.875 16.7188V19.1875H20.875V16.7188H19.875ZM11.8125 11.125H14.2812V10.125H11.8125V11.125ZM11.8125 20.6875C10.9841 20.6875 10.3125 20.0159 10.3125 19.1875H9.3125C9.3125 20.5682 10.4318 21.6875 11.8125 21.6875V20.6875ZM18.375 21.6875C19.7557 21.6875 20.875 20.5682 20.875 19.1875H19.875C19.875 20.0159 19.2034 20.6875 18.375 20.6875V21.6875ZM10.3125 12.625C10.3125 11.7966 10.9841 11.125 11.8125 11.125V10.125C10.4318 10.125 9.3125 11.2443 9.3125 12.625H10.3125Z" fill="white"/>
</svg>
