<svg width="10" height="11" viewBox="0 0 10 11" fill="none" xmlns="http://www.w3.org/2000/svg">
<g clip-path="url(#clip0_209_9595)">
<g filter="url(#filter0_d_209_9595)">
<path d="M1.71875 9.47217L2.30423 1.12483L8.26651 1.54303L7.68103 9.89036L1.71875 9.47217Z" fill="#FFE127"/>
</g>
</g>
<defs>
<filter id="filter0_d_209_9595" x="-3.28125" y="-3.875" width="16.5477" height="18.7651" filterUnits="userSpaceOnUse" color-interpolation-filters="sRGB">
<feFlood flood-opacity="0" result="BackgroundImageFix"/>
<feColorMatrix in="SourceAlpha" type="matrix" values="0 0 0 0 0 0 0 0 0 0 0 0 0 0 0 0 0 0 127 0" result="hardAlpha"/>
<feOffset/>
<feGaussianBlur stdDeviation="2.5"/>
<feComposite in2="hardAlpha" operator="out"/>
<feColorMatrix type="matrix" values="0 0 0 0 0 0 0 0 0 0 0 0 0 0 0 0 0 0 0.08 0"/>
<feBlend mode="normal" in2="BackgroundImageFix" result="effect1_dropShadow_209_9595"/>
<feBlend mode="normal" in="SourceGraphic" in2="effect1_dropShadow_209_9595" result="shape"/>
</filter>
<clipPath id="clip0_209_9595">
<rect width="10" height="10" fill="white" transform="translate(0 0.5)"/>
</clipPath>
</defs>
</svg>
